Ex. 05-1: Intersecting ATAC-seq with GO database
…
Show code

go_clusters <- lapply(
    levels(ATAC_peaks$annot), 
    function(annot) {
        go_results <- gprofiler2::gost(clusters_TSSs[[annot]], organism = 'scerevisiae')$result
        go_results$annot <- annot
        return(go_results)
    }
) %>% 
    do.call(rbind, .)
go_clusters

## # A tibble: 122 x 15
##    query significant p_value term_size query_size intersection_si precision
##    <chr> <lgl>         <dbl>     <int>      <int>            <int>     <dbl>
##  1 quer TRUE         0.0500         1          1                1       1  
##  2 quer TRUE         0.0500         1          1                1       1  
##  3 quer TRUE         0.0500         1          1                1       1  
##  4 quer TRUE         0.0500         1          1                1       1  
##  5 quer TRUE         0.0500         1          1                1       1  
##  6 quer TRUE         0.0500         1          1                1       1  
##  7 quer TRUE         0.0500         1          1                1       1  
##  8 quer TRUE         0.0500         1          1                1       1  
##  9 quer TRUE         0.0500         1          1                1       1  
## 10 quer TRUE         0.0429         6          2                1       0.5
## #  with 112 more rows, and 8 more variables: recall <dbl>, term_id <chr>,
## #   source <chr>, term_name <chr>, effective_domain_size <int>,
## #   source_order <int>, parents <list>, annot <chr>
…
## # A tibble: 4 x 15
##   query significant p_value term_size query_size intersection_si precision
##   <chr> <lgl>         <dbl>     <int>      <int>            <int>     <dbl>
## 1 quer TRUE        0.00902       968         18               12     0.667
## 2 quer TRUE        0.0216        258         19                6     0.316
## 3 quer TRUE        0.0217        160         19                5     0.263
## 4 quer TRUE        0.0312        187         11                5     0.455
## #  with 8 more variables: recall <dbl>, term_id <chr>, source <chr>,
## #   term_name <chr>, effective_domain_size <int>, source_order <int>,
## #   parents <list>, annot <chr>

go_clusters %>% filter(annot == "closed_no-recovery")

## # A tibble: 44 x 15
##    query significant p_value term_size query_size intersection_si precision
##    <chr> <lgl>         <dbl>     <int>      <int>            <int>     <dbl>
##  1 quer TRUE        0.00217        29         41                5     0.122
##  2 quer TRUE        0.00217        29         41                5     0.122
##  3 quer TRUE        0.00259        30         41                5     0.122
##  4 quer TRUE        0.00307        31         41                5     0.122
##  5 quer TRUE        0.00307        31         41                5     0.122
##  6 quer TRUE        0.00307        31         41                5     0.122
##  7 quer TRUE        0.00307        31         41                5     0.122
##  8 quer TRUE        0.00361        32         41                5     0.122
##  9 quer TRUE        0.00361        32         41                5     0.122
## 10 quer TRUE        0.00361        32         41                5     0.122
## #  with 34 more rows, and 8 more variables: recall <dbl>, term_id <chr>,
## #   source <chr>, term_name <chr>, effective_domain_size <int>,
## #   source_order <int>, parents <list>, annot <chr>

go_clusters %>% filter(annot == "closed_long-term-recovery")

## # A tibble: 32 x 15
##    query significant p_value term_size query_size intersection_si precision
##    <chr> <lgl>         <dbl>     <int>      <int>            <int>     <dbl>
##  1 quer TRUE        7.43e-5        43        101                9    0.0891
##  2 quer TRUE        3.26e-4       119        101               13    0.129 
##  3 quer TRUE        6.04e-4       350        101               22    0.218 
##  4 quer TRUE        6.32e-4       106        101               12    0.119 
##  5 quer TRUE        6.35e-4       126        101               13    0.129 
##  6 quer TRUE        9.45e-4       110        101               12    0.119 
##  7 quer TRUE        1.44e-3         6        101                4    0.0396
##  8 quer TRUE        1.44e-3         6        101                4    0.0396
##  9 quer TRUE        4.74e-3       128        101               12    0.119 
## 10 quer TRUE        6.53e-3         8        101                4    0.0396
## #  with 22 more rows, and 8 more variables: recall <dbl>, term_id <chr>,
## #   source <chr>, term_name <chr>, effective_domain_size <int>,
## #   source_order <int>, parents <list>, annot <chr>
…
